{
    "locations": [
        {
            "lat": 63.0763323,
            "lon": 27.661082,
            "address": "Asematie 1 Siilinjärvi"
        },
        {
            "lat": 61.467180,
            "lon": 23.722105,
            "address": "Pirkkala"
        },
        {
            "lat": 62.9060854,
            "lon": 27.6786829,
            "address": "Inkilänmäenkatu 1 Kuopio"
        },
        {
            "lat": 60.23691100000001,
            "lon": 24.8751635,
            "address": "Purpuripolku 1 Helsinki"
        },
        {
            "lat": 62.59705349999999,
            "lon": 29.7581071,
            "address": "Kauppakatu 1 Joensuu"
        },
        {
            "lat": 64.2263,
            "lon": 27.7265,
            "address": "Kajaani"
        },
        {
            "lat": 62.3000,
            "lon": 27.1583,
            "address": "Pieksänmäki"
        }
    ]
}
